{
	"RoslynExtensionsOptions": {
		"enableAnalyzersSupport": true,
		"EnableDecompilationSupport": true,
		"EnableImportCompletion": true
	},
	"FormattingOptions": {
		"enableEditorConfigSupport": true,
		"OrganizeImports": true
	},
	"RenameOptions": {
		"RenameInComments": true,
		"RenameOverloads": true,
		"RenameInStrings": true
	},
	"ImplementTypeOptions": {
		"PropertyGenerationBehavior": "PreferAutoProperties",
		"InsertionBehavior": "WithOtherMembersOfTheSameKind"
	}
}