{
  "version": 1,
  "isRoot": true,
  "tools": {
    "cake.tool": {
      "version": "2.3.0",
      "commands": [
        "dotnet-cake"
      ]
    },
    "roslynator.dotnet.cli": {
      "version": "0.4.0",
      "commands": [
        "roslynator"
      ]
    },
    "dotnet-outdated-tool": {
      "version": "4.2.0",
      "commands": [
        "dotnet-outdated"
      ]
    }
  }
}